{
  "_type": "export",
  "__export_format": 4,
  "__export_date": "2019-06-29T19:53:34.176Z",
  "__export_source": "insomnia.desktop.app:v6.5.4",
  "resources": [
    {
      "_id": "req_6c8d061263c74c9f86812874bb53eabc",
      "authentication": {},
      "body": {
        "mimeType": "application/json",
        "text": "{\n\t\"title\": \"project title\",\n\t\"tasks\":[]\n}"
      },
      "created": 1561831318589,
      "description": "",
      "headers": [
        {
          "id": "pair_f8c017a9f5a242d39f906c549c15c6de",
          "name": "Content-Type",
          "value": "application/json"
        }
      ],
      "isPrivate": false,
      "metaSortKey": -1561833725864,
      "method": "POST",
      "modified": 1561836993465,
      "name": "Create",
      "parameters": [],
      "parentId": "fld_821bff1fee7e4c39bea844727c7cf231",
      "settingDisableRenderRequestBody": false,
      "settingEncodeUrl": true,
      "settingRebuildPath": true,
      "settingSendCookies": true,
      "settingStoreCookies": true,
      "url": "http://localhost:3000/projects",
      "_type": "request"
    },
    {
      "_id": "fld_821bff1fee7e4c39bea844727c7cf231",
      "created": 1561831303631,
      "description": "",
      "environment": {},
      "environmentPropertyOrder": null,
      "metaSortKey": -1561831303631,
      "modified": 1561831303631,
      "name": "Project",
      "parentId": "fld_a569786e7c9b4e25a4a348cbb756a076",
      "_type": "request_group"
    },
    {
      "_id": "fld_a569786e7c9b4e25a4a348cbb756a076",
      "created": 1561831227761,
      "description": "",
      "environment": {},
      "environmentPropertyOrder": null,
      "metaSortKey": -1561831227761,
      "modified": 1561831227761,
      "name": "challenger-01",
      "parentId": "fld_812e8541f3184d23b3dc7e2acd58a8b6",
      "_type": "request_group"
    },
    {
      "_id": "fld_812e8541f3184d23b3dc7e2acd58a8b6",
      "created": 1561827251256,
      "description": "",
      "environment": {},
      "environmentPropertyOrder": null,
      "metaSortKey": -1561827251256,
      "modified": 1561827251256,
      "name": "bootcamp",
      "parentId": "wrk_28c7bb9b534b49b2888fc583f834521c",
      "_type": "request_group"
    },
    {
      "_id": "wrk_28c7bb9b534b49b2888fc583f834521c",
      "created": 1561043419013,
      "description": "",
      "modified": 1561043419013,
      "name": "Insomnia",
      "parentId": null,
      "_type": "workspace"
    },
    {
      "_id": "req_6970b095f2a248cbb160e89a7d4c2899",
      "authentication": {},
      "body": {},
      "created": 1561831766261,
      "description": "",
      "headers": [],
      "isPrivate": false,
      "metaSortKey": -1561833725839,
      "method": "GET",
      "modified": 1561836995133,
      "name": "List",
      "parameters": [],
      "parentId": "fld_821bff1fee7e4c39bea844727c7cf231",
      "settingDisableRenderRequestBody": false,
      "settingEncodeUrl": true,
      "settingRebuildPath": true,
      "settingSendCookies": true,
      "settingStoreCookies": true,
      "url": "http://localhost:3000/projects",
      "_type": "request"
    },
    {
      "_id": "req_94ec980dd3ea46d786d66670ab5b5553",
      "authentication": {},
      "body": {
        "mimeType": "application/json",
        "text": "{\n\t\"title\": \"project title update\"\n}"
      },
      "created": 1561831970110,
      "description": "",
      "headers": [
        {
          "id": "pair_44d5fadc295d456b8488895f7f283f29",
          "name": "Content-Type",
          "value": "application/json"
        }
      ],
      "isPrivate": false,
      "metaSortKey": -1561833725826.5,
      "method": "PUT",
      "modified": 1561837215849,
      "name": "Update title project",
      "parameters": [],
      "parentId": "fld_821bff1fee7e4c39bea844727c7cf231",
      "settingDisableRenderRequestBody": false,
      "settingEncodeUrl": true,
      "settingRebuildPath": true,
      "settingSendCookies": true,
      "settingStoreCookies": true,
      "url": "http://localhost:3000/projects/0",
      "_type": "request"
    },
    {
      "_id": "req_e7acd79d9e414ee0b8c0412fab28610c",
      "authentication": {},
      "body": {
        "mimeType": "application/json",
        "text": "{\n\t\"title\": \"title task\"\n}"
      },
      "created": 1561833725814,
      "description": "",
      "headers": [
        {
          "id": "pair_6dd9b27e16874c44b28762feeaf18788",
          "name": "Content-Type",
          "value": "application/json"
        }
      ],
      "isPrivate": false,
      "metaSortKey": -1561833725814,
      "method": "POST",
      "modified": 1561835385996,
      "name": "add task",
      "parameters": [],
      "parentId": "fld_821bff1fee7e4c39bea844727c7cf231",
      "settingDisableRenderRequestBody": false,
      "settingEncodeUrl": true,
      "settingRebuildPath": true,
      "settingSendCookies": true,
      "settingStoreCookies": true,
      "url": "http://localhost:3000/projects/0/tasks",
      "_type": "request"
    },
    {
      "_id": "req_5e40f87deda04ee38b990ce710496ba0",
      "authentication": {},
      "body": { "mimeType": "application/json", "text": "" },
      "created": 1561833010446,
      "description": "",
      "headers": [
        {
          "id": "pair_44d5fadc295d456b8488895f7f283f29",
          "name": "Content-Type",
          "value": "application/json"
        }
      ],
      "isPrivate": false,
      "metaSortKey": -1561831868185.5,
      "method": "DELETE",
      "modified": 1561837736270,
      "name": "Delete project",
      "parameters": [],
      "parentId": "fld_821bff1fee7e4c39bea844727c7cf231",
      "settingDisableRenderRequestBody": false,
      "settingEncodeUrl": true,
      "settingRebuildPath": true,
      "settingSendCookies": true,
      "settingStoreCookies": true,
      "url": "http://localhost:3000/projects/1",
      "_type": "request"
    },
    {
      "_id": "env_456b2a8da64f9f020400588fb4d9668ff3f41ec6",
      "color": null,
      "created": 1561043419047,
      "data": {},
      "dataPropertyOrder": null,
      "isPrivate": false,
      "metaSortKey": 1561043419047,
      "modified": 1561043419047,
      "name": "Base Environment",
      "parentId": "wrk_28c7bb9b534b49b2888fc583f834521c",
      "_type": "environment"
    },
    {
      "_id": "jar_456b2a8da64f9f020400588fb4d9668ff3f41ec6",
      "cookies": [],
      "created": 1561043419051,
      "modified": 1561043419051,
      "name": "Default Jar",
      "parentId": "wrk_28c7bb9b534b49b2888fc583f834521c",
      "_type": "cookie_jar"
    }
  ]
}
